Chapter 5 Counting on tibble | Probabilistic Reasoning
…
Tibbles (Müller and Wickham 2020) are the backbone of the management of the data we use in all of the functional workings of our model. First of all, a tibble is a data frame and has the two dimensions of any matrix or table, rows and columns. So, whenever we talk about data frames, we’re usually talking about tibbles. For more on the topic, check out R4SD, Chapter 10.

It is often best to learn of tibbles by doing. Doing what? Why, it is piping data from a raw tibble to aggregations of the data, transformations of the raw data and aggregations. Here is a very simple example in the tidyverse that makes use of the dplyr package.

Let’s make some toy data to play with. We generate 100 variates normally distributed with mean 10 and standard deviation 5. We then transform this series into another and display the first 10 rows. To reproduce results we set the random seed.

library(tidyverse)
set.seed(42)
n_sim <- 100
x <- abs(rnorm(n_sim, 10, 5))
y <- 3 + 0.5 * x
xy_tbl <- tibble(y = y, x = x)
xy_tbl

## # A tibble: 100 x 2
##        y     x
##    <dbl> <dbl>
##  1 11.4  16.9 
##  2  6.59  7.18
##  3  8.91 11.8 
##  4  9.58 13.2 
##  5  9.01 12.0 
##  6  7.73  9.47
##  7 11.8  17.6 
##  8  7.76  9.53
##  9 13.0  20.1 
## 10  7.84  9.69
## # ... with 90 more rows

With this tibble we can transform the variables by adding more through a pipe to the mutate() verb and assign the results to another tibble object.

xy_tbl <- xy_tbl %>% mutate(log_y = log(y), 
    log_x = log(x))
xy_tbl

## # A tibble: 100 x 4
##        y     x log_y log_x
##    <dbl> <dbl> <dbl> <dbl>
##  1 11.4  16.9   2.44  2.82
##  2  6.59  7.18  1.89  1.97
##  3  8.91 11.8   2.19  2.47
##  4  9.58 13.2   2.26  2.58
##  5  9.01 12.0   2.20  2.49
##  6  7.73  9.47  2.05  2.25
##  7 11.8  17.6   2.47  2.87
##  8  7.76  9.53  2.05  2.25
##  9 13.0  20.1   2.57  3.00
## 10  7.84  9.69  2.06  2.27
## # ... with 90 more rows
…
##  [1] "b" "r" "r" "r" "b" "r" "r" "r" "b" "r" "r" "r" "b" "r" "r" "r" "b" "r" "r" "r" "b"
## [22] "r" "r" "r" "b" "r" "r" "r" "b" "r" "r" "r" "b" "r" "r" "r" "b" "r" "r" "r" "b" "r"
## [43] "r" "r" "b" "r" "r" "r" "b" "r" "r" "r" "b" "r" "r" "r" "b" "r" "r" "r" "b" "r" "r"
## [64] "r" "b" "r" "r" "r" "b" "r" "r" "r" "b" "r" "r" "r" "b" "r" "r" "r" "b" "r" "r" "r"

All together we have this tibble. While this is quite a job to think through and carve out this hierarchical data tree we gain insight into how data is shaped and molded to our purposes.

d <- tibble(position = c((1:4^1)/4^0, 
    (1:4^2)/4^1, (1:4^3)/4^2), draw = rep(1:3, 
    times = c(4^1, 4^2, 4^3)), fill = rep(c("b", 
    "r"), times = c(1, 3)) %>% rep(., 
    times = c(4^0 + 4^1 + 4^2)))
d

## # A tibble: 84 x 3
##    position  draw fill 
##       <dbl> <int> <chr>
##  1     1        1 b    
##  2     2        1 r    
##  3     3        1 r    
##  4     4        1 r    
##  5     0.25     2 b    
##  6     0.5      2 r    
##  7     0.75     2 r    
##  8     1        2 r    
##  9     1.25     2 b    
## 10     1.5      2 r    
## # ... with 74 more rows
…
# these will connect the dots from
# the second and third draws
lines_2 <- tibble(x = rep(((1:4^2)/4), 
    each = 4), xend = (1:4^3)/(4^2), 
    y = 2, yend = 3)
lines_2

## # A tibble: 64 x 4
##        x   xend     y  yend
##    <dbl>  <dbl> <dbl> <dbl>
##  1  0.25 0.0625     2     3
##  2  0.25 0.125      2     3
##  3  0.25 0.188      2     3
##  4  0.25 0.25       2     3
##  5  0.5  0.312      2     3
##  6  0.5  0.375      2     3
##  7  0.5  0.438      2     3
##  8  0.5  0.5        2     3
##  9  0.75 0.562      2     3
## 10  0.75 0.625      2     3
## # ... with 54 more rows
…
lines_2

## # A tibble: 64 x 4
##        x   xend     y  yend
##    <dbl>  <dbl> <dbl> <dbl>
##  1 0.125 0.0312     2     3
##  2 0.125 0.0938     2     3
##  3 0.125 0.156      2     3
##  4 0.125 0.219      2     3
##  5 0.375 0.281      2     3
##  6 0.375 0.344      2     3
##  7 0.375 0.406      2     3
##  8 0.375 0.469      2     3
##  9 0.625 0.531      2     3
## 10 0.625 0.594      2     3
## # ... with 54 more rows
…
lines_1 <- lines_1 %>% mutate(remain = c(rep(0:1, 
    times = c(1, 3)), rep(0, times = 4 * 
    3)))
lines_2 <- lines_2 %>% mutate(remain = c(rep(0, 
    times = 4), rep(1:0, times = c(1, 
    3)) %>% rep(., times = 3), rep(0, 
    times = 12 * 4)))
d <- d %>% mutate(remain = c(rep(1:0, 
    times = c(1, 3)), rep(0:1, times = c(1, 
    3)), rep(0, times = 4 * 4), rep(1:0, 
    times = c(1, 3)) %>% rep(., times = 3), 
    rep(0, times = 12 * 4)))
d

## # A tibble: 84 x 5
##    position  draw fill  denominator remain
##       <dbl> <int> <chr>       <dbl>  <dbl>
##  1    0.5       1 b           0.5        1
##  2    1.5       1 r           0.5        0
##  3    2.5       1 r           0.5        0
##  4    3.5       1 r           0.5        0
##  5    0.125     2 b           0.125      0
##  6    0.375     2 r           0.125      1
##  7    0.625     2 r           0.125      1
##  8    0.875     2 r           0.125      1
##  9    1.12      2 b           0.125      0
## 10    1.38      2 r           0.125      0
## # ... with 74 more rows
…
