Chapter 7 Sampling the Hypothetical | Probabilistic Reasoning
…
n <- 1000
n_success <- 6
n_trials  <- 8
(
  d <-
  tibble(p_grid = seq(from = 0, to = 1, length.out = n),
         # note we're still using a flat uniform prior
         prior  = 1) %>% 
  mutate(likelihood = dbinom(n_success, size = n_trials, prob = p_grid)) %>% 
  mutate(posterior = (likelihood * prior) / sum(likelihood * prior))
)

## # A tibble: 1,000 x 4
##     p_grid prior likelihood posterior
##      <dbl> <dbl>      <dbl>     <dbl>
##  1 0           1   0.        0.      
##  2 0.00100     1   2.81e-17  2.53e-19
##  3 0.00200     1   1.80e-15  1.62e-17
##  4 0.00300     1   2.04e-14  1.84e-16
##  5 0.00400     1   1.14e-13  1.03e-15
##  6 0.00501     1   4.36e-13  3.93e-15
##  7 0.00601     1   1.30e-12  1.17e-14
##  8 0.00701     1   3.27e-12  2.94e-14
##  9 0.00801     1   7.27e-12  6.55e-14
## 10 0.00901     1   1.47e-11  1.32e-13
## # ... with 990 more rows
…
We always test our handiwork, and as we hoped (expected?) we get the same result as before. It seems our function works just fine.

(
  loss <-
  d %>% 
  select(p_grid) %>% 
  rename(decision = p_grid) %>% 
  mutate(weighted_average_loss = purrr::map(decision, make_loss)) %>% 
  unnest(weighted_average_loss) 
)

## # A tibble: 1,000 x 2
##    decision weighted_average_loss
##       <dbl>                 <dbl>
##  1  0                       0.700
##  2  0.00100                 0.699
##  3  0.00200                 0.698
##  4  0.00300                 0.697
##  5  0.00400                 0.696
##  6  0.00501                 0.695
##  7  0.00601                 0.694
##  8  0.00701                 0.693
##  9  0.00801                 0.692
## 10  0.00901                 0.691
## # ... with 990 more rows
…
